{
    "fluentMethods": true,
    "relationships": [
        {
            "relationshipType": "many-to-many",
            "otherEntityRelationshipName": "diplomeifsic",
            "relationshipName": "enseignant",
            "otherEntityName": "enseignant",
            "otherEntityField": "nom",
            "ownerSide": true
        },
        {
            "relationshipType": "one-to-one",
            "relationshipName": "stage",
            "otherEntityName": "stage",
            "ownerSide": false,
            "otherEntityRelationshipName": "diplomeifsic"
        },
        {
            "relationshipType": "many-to-one",
            "relationshipName": "filiere",
            "otherEntityName": "filiere",
            "otherEntityField": "libelle"
        }
    ],
    "fields": [
        {
            "fieldName": "libelle",
            "fieldType": "String"
        }
    ],
    "changelogDate": "20161001191858",
    "entityTableName": "dip_ifsic",
    "dto": "no",
    "pagination": "no",
    "service": "no"
}
