{
    "fluentMethods": true,
    "relationships": [
        {
            "relationshipName": "stage",
            "otherEntityName": "stage",
            "relationshipType": "one-to-many",
            "otherEntityRelationshipName": "fonction"
        }
    ],
    "fields": [
        {
            "fieldName": "libelle",
            "fieldType": "String"
        }
    ],
    "changelogDate": "20161001191852",
    "dto": "no",
    "service": "no",
    "entityTableName": "fonction",
    "pagination": "no"
}
